sd controller/simulation/questa/spi_transactor_tb.vcd
$date
	Sun Nov  2 16:49:21 2025
$end
$version
	Questa Intel Starter FPGA Edition Version 2023.3
$end
$timescale
	1ps
$end

$scope module spi_transactor_tb $end
$var reg 1 ! clk $end
$var reg 1 " rst_n $end
$var reg 1 # spi_clk_rising $end
$var reg 1 $ spi_clk_falling $end
$var reg 1 % start $end
$var reg 8 & tx_data [7:0] $end
$var wire 1 ' rx_data [7] $end
$var wire 1 ( rx_data [6] $end
$var wire 1 ) rx_data [5] $end
$var wire 1 * rx_data [4] $end
$var wire 1 + rx_data [3] $end
$var wire 1 , rx_data [2] $end
$var wire 1 - rx_data [1] $end
$var wire 1 . rx_data [0] $end
$var wire 1 / done $end
$var wire 1 0 spi_mosi $end
$var reg 1 1 spi_miso $end
$var integer 32 2 error_cnt $end
$var reg 32 3 edge_counter [31:0] $end
$var reg 8 4 slave_shift [7:0] $end
$var reg 1 5 slave_active $end

$scope module dut $end
$var wire 1 6 clk $end
$var wire 1 7 rst_n $end
$var wire 1 8 spi_clk_rising $end
$var wire 1 9 spi_clk_falling $end
$var wire 1 : start $end
$var wire 1 ; tx_data [7] $end
$var wire 1 < tx_data [6] $end
$var wire 1 = tx_data [5] $end
$var wire 1 > tx_data [4] $end
$var wire 1 ? tx_data [3] $end
$var wire 1 @ tx_data [2] $end
$var wire 1 A tx_data [1] $end
$var wire 1 B tx_data [0] $end
$var reg 8 C rx_data [7:0] $end
$var reg 1 D done $end
$var reg 1 E spi_mosi $end
$var wire 1 F spi_miso $end
$var reg 8 G tx_shift [7:0] $end
$var reg 8 H rx_shift [7:0] $end
$var reg 3 I bit_cnt [2:0] $end
$var reg 1 J busy $end
$upscope $end
$upscope $end
$enddefinitions $end
#0
$dumpvars
0!
0"
0#
0$
0%
b1010101 &
11
b0 C
0D
1E
b0 G
b0 H
b0 I
0J
b0 3
b10100011 4
05
b0 2
0.
0-
0,
0+
0*
0)
0(
0'
0/
10
1F
1B
0A
1@
0?
1>
0=
1<
0;
0:
09
08
07
06
$end
#10000
1!
16
b1 3
1$
19
#20000
0!
06
#30000
1!
16
0$
b10 3
09
#40000
0!
06
#50000
1!
16
b11 3
#60000
0!
06
#70000
1!
16
b100 3
#80000
0!
06
#90000
1!
16
b101 3
#100000
1"
0!
17
06
#110000
1!
16
b110 3
#120000
0!
06
#130000
1!
16
b111 3
#140000
0!
06
#150000
1!
16
b1000 3
#160000
0!
06
#170000
1!
16
b1001 3
1#
18
#180000
0!
06
#190000
1!
16
0#
b1010 3
08
#200000
0!
06
#210000
1!
16
b1011 3
#220000
0!
06
#230000
1!
16
b1100 3
#240000
0!
06
#250000
1!
16
b1101 3
#260000
0!
06
#270000
1!
16
b1110 3
#280000
0!
06
#290000
1!
16
b1111 3
#300000
1%
0!
1:
06
#310000
1!
16
1J
b1010101 G
0E
b10000 3
15
00
#320000
0%
0!
0:
06
#330000
1!
16
b10001 3
1$
19
#340000
0!
06
#350000
1!
16
b10101010 G
1E
b1 I
0$
b10010 3
10
09
#360000
0!
06
#370000
1!
16
b10011 3
#380000
0!
06
#390000
1!
16
b10100 3
#400000
0!
06
#410000
1!
16
b10101 3
#420000
0!
06
#430000
1!
16
b10110 3
#440000
0!
06
#450000
1!
16
b10111 3
#460000
0!
06
#470000
1!
16
b11000 3
#480000
0!
06
#490000
1!
16
b11001 3
1#
18
#500000
0!
06
#510000
1!
16
b1 H
0#
b11010 3
b1000110 4
01
08
0F
#520000
0!
06
#530000
1!
16
b11011 3
#540000
0!
06
#550000
1!
16
b11100 3
#560000
0!
06
#570000
1!
16
b11101 3
#580000
0!
06
#590000
1!
16
b11110 3
#600000
0!
06
#610000
1!
16
b11111 3
#620000
0!
06
#630000
1!
16
b100000 3
#640000
0!
06
#650000
1!
16
b100001 3
1$
19
#660000
0!
06
#670000
1!
16
b1010100 G
0E
b10 I
0$
b100010 3
00
09
#680000
0!
06
#690000
1!
16
b100011 3
#700000
0!
06
#710000
1!
16
b100100 3
#720000
0!
06
#730000
1!
16
b100101 3
#740000
0!
06
#750000
1!
16
b100110 3
#760000
0!
06
#770000
1!
16
b100111 3
#780000
0!
06
#790000
1!
16
b101000 3
#800000
0!
06
#810000
1!
16
b101001 3
1#
18
#820000
0!
06
#830000
1!
16
b10 H
0#
b101010 3
b10001100 4
11
08
1F
#840000
0!
06
#850000
1!
16
b101011 3
#860000
0!
06
#870000
1!
16
b101100 3
#880000
0!
06
#890000
1!
16
b101101 3
#900000
0!
06
#910000
1!
16
b101110 3
#920000
0!
06
#930000
1!
16
b101111 3
#940000
0!
06
#950000
1!
16
b110000 3
#960000
0!
06
#970000
1!
16
b110001 3
1$
19
#980000
0!
06
#990000
1!
16
b10101000 G
1E
b11 I
0$
b110010 3
10
09
#1000000
0!
06
#1010000
1!
16
b110011 3
#1020000
0!
06
#1030000
1!
16
b110100 3
#1040000
0!
06
#1050000
1!
16
b110101 3
#1060000
0!
06
#1070000
1!
16
b110110 3
#1080000
0!
06
#1090000
1!
16
b110111 3
#1100000
0!
06
#1110000
1!
16
b111000 3
#1120000
0!
06
#1130000
1!
16
b111001 3
1#
18
#1140000
0!
06
#1150000
1!
16
b101 H
0#
b111010 3
b11000 4
01
08
0F
#1160000
0!
06
#1170000
1!
16
b111011 3
#1180000
0!
06
#1190000
1!
16
b111100 3
#1200000
0!
06
#1210000
1!
16
b111101 3
#1220000
0!
06
#1230000
1!
16
b111110 3
#1240000
0!
06
#1250000
1!
16
b111111 3
#1260000
0!
06
#1270000
1!
16
b1000000 3
#1280000
0!
06
#1290000
1!
16
b1000001 3
1$
19
#1300000
0!
06
#1310000
1!
16
b1010000 G
0E
b100 I
0$
b1000010 3
00
09
#1320000
0!
06
#1330000
1!
16
b1000011 3
#1340000
0!
06
#1350000
1!
16
b1000100 3
#1360000
0!
06
#1370000
1!
16
b1000101 3
#1380000
0!
06
#1390000
1!
16
b1000110 3
#1400000
0!
06
#1410000
1!
16
b1000111 3
#1420000
0!
06
#1430000
1!
16
b1001000 3
#1440000
0!
06
#1450000
1!
16
b1001001 3
1#
18
#1460000
0!
06
#1470000
1!
16
b1010 H
0#
b1001010 3
b110000 4
08
#1480000
0!
06
#1490000
1!
16
b1001011 3
#1500000
0!
06
#1510000
1!
16
b1001100 3
#1520000
0!
06
#1530000
1!
16
b1001101 3
#1540000
0!
06
#1550000
1!
16
b1001110 3
#1560000
0!
06
#1570000
1!
16
b1001111 3
#1580000
0!
06
#1590000
1!
16
b1010000 3
#1600000
0!
06
#1610000
1!
16
b1010001 3
1$
19
#1620000
0!
06
#1630000
1!
16
b10100000 G
1E
b101 I
0$
b1010010 3
10
09
#1640000
0!
06
#1650000
1!
16
b1010011 3
#1660000
0!
06
#1670000
1!
16
b1010100 3
#1680000
0!
06
#1690000
1!
16
b1010101 3
#1700000
0!
06
#1710000
1!
16
b1010110 3
#1720000
0!
06
#1730000
1!
16
b1010111 3
#1740000
0!
06
#1750000
1!
16
b1011000 3
#1760000
0!
06
#1770000
1!
16
b1011001 3
1#
18
#1780000
0!
06
#1790000
1!
16
b10100 H
0#
b1011010 3
b1100000 4
08
#1800000
0!
06
#1810000
1!
16
b1011011 3
#1820000
0!
06
#1830000
1!
16
b1011100 3
#1840000
0!
06
#1850000
1!
16
b1011101 3
#1860000
0!
06
#1870000
1!
16
b1011110 3
#1880000
0!
06
#1890000
1!
16
b1011111 3
#1900000
0!
06
#1910000
1!
16
b1100000 3
#1920000
0!
06
#1930000
1!
16
b1100001 3
1$
19
#1940000
0!
06
#1950000
1!
16
b1000000 G
0E
b110 I
0$
b1100010 3
00
09
#1960000
0!
06
#1970000
1!
16
b1100011 3
#1980000
0!
06
#1990000
1!
16
b1100100 3
#2000000
0!
06
#2010000
1!
16
b1100101 3
#2020000
0!
06
#2030000
1!
16
b1100110 3
#2040000
0!
06
#2050000
1!
16
b1100111 3
#2060000
0!
06
#2070000
1!
16
b1101000 3
#2080000
0!
06
#2090000
1!
16
b1101001 3
1#
18
#2100000
0!
06
#2110000
1!
16
b101000 H
0#
b1101010 3
b11000000 4
11
08
1F
#2120000
0!
06
#2130000
1!
16
b1101011 3
#2140000
0!
06
#2150000
1!
16
b1101100 3
#2160000
0!
06
#2170000
1!
16
b1101101 3
#2180000
0!
06
#2190000
1!
16
b1101110 3
#2200000
0!
06
#2210000
1!
16
b1101111 3
#2220000
0!
06
#2230000
1!
16
b1110000 3
#2240000
0!
06
#2250000
1!
16
b1110001 3
1$
19
#2260000
0!
06
#2270000
1!
16
b10000000 G
1E
b111 I
0$
b1110010 3
10
09
#2280000
0!
06
#2290000
1!
16
b1110011 3
#2300000
0!
06
#2310000
1!
16
b1110100 3
#2320000
0!
06
#2330000
1!
16
b1110101 3
#2340000
0!
06
#2350000
1!
16
b1110110 3
#2360000
0!
06
#2370000
1!
16
b1110111 3
#2380000
0!
06
#2390000
1!
16
b1111000 3
#2400000
0!
06
#2410000
1!
16
b1111001 3
1#
18
#2420000
0!
06
#2430000
1!
16
b1010001 H
0#
b1111010 3
b10000000 4
08
#2440000
0!
06
#2450000
1!
16
b1111011 3
#2460000
0!
06
#2470000
1!
16
b1111100 3
#2480000
0!
06
#2490000
1!
16
b1111101 3
#2500000
0!
06
#2510000
1!
16
b1111110 3
#2520000
0!
06
#2530000
1!
16
b1111111 3
#2540000
0!
06
#2550000
1!
16
b10000000 3
#2560000
0!
06
#2570000
1!
16
b10000001 3
1$
19
#2580000
0!
06
#2590000
1!
16
b10100011 C
1D
0J
0$
b10000010 3
1.
1-
1)
1'
1/
09
#2600000
0!
06
#2610000
1!
16
0D
b10000011 3
05
0/
#2620000
0!
06
#2630000
1!
16
b10000100 3
#2640000
0!
06
#2650000
1!
16
b10000101 3
#2660000
0!
06
#2670000
1!
16
b10000110 3
#2680000
0!
06
#2690000
1!
16
b10000111 3
#2700000
0!
06
#2710000
1!
16
b10001000 3
#2720000
0!
06
#2730000
1!
16
b10001001 3
1#
18
#2740000
0!
06
#2750000
1!
16
0#
b10001010 3
08
#2760000
0!
06
#2770000
1!
16
b10001011 3
#2780000
0!
06
#2790000
b10101010 &
1%
1!
0B
1A
0@
1?
0>
1=
0<
1;
1:
16
1J
b10101010 G
b0 H
b0 I
b10001100 3
15
b10100011 4
#2800000
0!
06
#2810000
0%
1!
0:
16
b10001101 3
#2820000
0!
06
#2830000
1!
16
b10001110 3
#2840000
0!
06
#2850000
1!
16
b10001111 3
#2860000
0!
06
#2870000
1!
16
b10010000 3
#2880000
0!
06
#2890000
1!
16
b10010001 3
1$
19
#2900000
0!
06
#2910000
1!
16
b1010100 G
0E
b1 I
0$
b10010010 3
00
09
#2920000
0!
06
#2930000
1!
16
b10010011 3
#2940000
0!
06
#2950000
1!
16
b10010100 3
#2960000
0!
06
#2970000
1!
16
b10010101 3
#2980000
0!
06
#2990000
1!
16
b10010110 3
#3000000
0!
06
#3010000
1!
16
b10010111 3
#3020000
0!
06
#3030000
1!
16
b10011000 3
#3040000
0!
06
#3050000
1!
16
b10011001 3
1#
18
#3060000
0!
06
#3070000
1!
16
b1 H
0#
b10011010 3
b1000110 4
01
08
0F
#3080000
0!
06
#3090000
1!
16
b10011011 3
#3100000
0!
06
#3110000
1!
16
b10011100 3
#3120000
0!
06
#3130000
1!
16
b10011101 3
#3140000
0!
06
#3150000
1!
16
b10011110 3
#3160000
0!
06
#3170000
1!
16
b10011111 3
#3180000
0!
06
#3190000
1!
16
b10100000 3
#3200000
0!
06
#3210000
1!
16
b10100001 3
1$
19
#3220000
0!
06
#3230000
1!
16
b10101000 G
1E
b10 I
0$
b10100010 3
10
09
#3240000
0!
06
#3250000
1!
16
b10100011 3
#3260000
0!
06
#3270000
1!
16
b10100100 3
#3280000
0!
06
#3290000
1!
16
b10100101 3
#3300000
0!
06
#3310000
1!
16
b10100110 3
#3320000
0!
06
#3330000
1!
16
b10100111 3
#3340000
0!
06
#3350000
1!
16
b10101000 3
#3360000
0!
06
#3370000
1!
16
b10101001 3
1#
18
#3380000
0!
06
#3390000
1!
16
b10 H
0#
b10101010 3
b10001100 4
11
08
1F
#3400000
0!
06
#3410000
1!
16
b10101011 3
#3420000
0!
06
#3430000
1!
16
b10101100 3
#3440000
0!
06
#3450000
1!
16
b10101101 3
#3460000
0!
06
#3470000
1!
16
b10101110 3
#3480000
0!
06
#3490000
1!
16
b10101111 3
#3500000
0!
06
#3510000
1!
16
b10110000 3
#3520000
0!
06
#3530000
1!
16
b10110001 3
1$
19
#3540000
0!
06
#3550000
1!
16
b1010000 G
0E
b11 I
0$
b10110010 3
00
09
#3560000
0!
06
#3570000
1!
16
b10110011 3
#3580000
0!
06
#3590000
1!
16
b10110100 3
#3600000
0!
06
#3610000
1!
16
b10110101 3
#3620000
0!
06
#3630000
1!
16
b10110110 3
#3640000
0!
06
#3650000
1!
16
b10110111 3
#3660000
0!
06
#3670000
1!
16
b10111000 3
#3680000
0!
06
#3690000
1!
16
b10111001 3
1#
18
#3700000
0!
06
#3710000
1!
16
b101 H
0#
b10111010 3
b11000 4
01
08
0F
#3720000
0!
06
#3730000
1!
16
b10111011 3
#3740000
0!
06
#3750000
1!
16
b10111100 3
#3760000
0!
06
#3770000
1!
16
b10111101 3
#3780000
0!
06
#3790000
1!
16
b10111110 3
#3800000
0!
06
#3810000
1!
16
b10111111 3
#3820000
0!
06
#3830000
1!
16
b11000000 3
#3840000
0!
06
#3850000
1!
16
b11000001 3
1$
19
#3860000
0!
06
#3870000
1!
16
b10100000 G
1E
b100 I
0$
b11000010 3
10
09
#3880000
0!
06
#3890000
1!
16
b11000011 3
#3900000
0!
06
#3910000
1!
16
b11000100 3
#3920000
0!
06
#3930000
1!
16
b11000101 3
#3940000
0!
06
#3950000
1!
16
b11000110 3
#3960000
0!
06
#3970000
1!
16
b11000111 3
#3980000
0!
06
#3990000
1!
16
b11001000 3
#4000000
0!
06
#4010000
1!
16
b11001001 3
1#
18
#4020000
0!
06
#4030000
1!
16
b1010 H
0#
b11001010 3
b110000 4
08
#4040000
0!
06
#4050000
1!
16
b11001011 3
#4060000
0!
06
#4070000
1!
16
b11001100 3
#4080000
0!
06
#4090000
1!
16
b11001101 3
#4100000
0!
06
#4110000
1!
16
b11001110 3
#4120000
0!
06
#4130000
1!
16
b11001111 3
#4140000
0!
06
#4150000
1!
16
b11010000 3
#4160000
0!
06
#4170000
1!
16
b11010001 3
1$
19
#4180000
0!
06
#4190000
1!
16
b1000000 G
0E
b101 I
0$
b11010010 3
00
09
#4200000
0!
06
#4210000
1!
16
b11010011 3
#4220000
0!
06
#4230000
1!
16
b11010100 3
#4240000
0!
06
#4250000
1!
16
b11010101 3
#4260000
0!
06
#4270000
1!
16
b11010110 3
#4280000
0!
06
#4290000
1!
16
b11010111 3
#4300000
0!
06
#4310000
1!
16
b11011000 3
#4320000
0!
06
#4330000
1!
16
b11011001 3
1#
18
#4340000
0!
06
#4350000
1!
16
b10100 H
0#
b11011010 3
b1100000 4
08
#4360000
0!
06
#4370000
1!
16
b11011011 3
#4380000
0!
06
#4390000
1!
16
b11011100 3
#4400000
0!
06
#4410000
1!
16
b11011101 3
#4420000
0!
06
#4430000
1!
16
b11011110 3
#4440000
0!
06
#4450000
1!
16
b11011111 3
#4460000
0!
06
#4470000
1!
16
b11100000 3
#4480000
0!
06
#4490000
1!
16
b11100001 3
1$
19
#4500000
0!
06
#4510000
1!
16
b10000000 G
1E
b110 I
0$
b11100010 3
10
09
#4520000
0!
06
#4530000
1!
16
b11100011 3
#4540000
0!
06
#4550000
1!
16
b11100100 3
#4560000
0!
06
#4570000
1!
16
b11100101 3
#4580000
0!
06
#4590000
1!
16
b11100110 3
#4600000
0!
06
#4610000
1!
16
b11100111 3
#4620000
0!
06
#4630000
1!
16
b11101000 3
#4640000
0!
06
#4650000
1!
16
b11101001 3
1#
18
#4660000
0!
06
#4670000
1!
16
b101000 H
0#
b11101010 3
b11000000 4
11
08
1F
#4680000
0!
06
#4690000
1!
16
b11101011 3
#4700000
0!
06
#4710000
1!
16
b11101100 3
#4720000
0!
06
#4730000
1!
16
b11101101 3
#4740000
0!
06
#4750000
1!
16
b11101110 3
#4760000
0!
06
#4770000
1!
16
b11101111 3
#4780000
0!
06
#4790000
1!
16
b11110000 3
#4800000
0!
06
#4810000
1!
16
b11110001 3
1$
19
#4820000
0!
06
#4830000
1!
16
b0 G
0E
b111 I
0$
b11110010 3
00
09
#4840000
0!
06
#4850000
1!
16
b11110011 3
#4860000
0!
06
#4870000
1!
16
b11110100 3
#4880000
0!
06
#4890000
1!
16
b11110101 3
#4900000
0!
06
#4910000
1!
16
b11110110 3
#4920000
0!
06
#4930000
1!
16
b11110111 3
#4940000
0!
06
#4950000
1!
16
b11111000 3
#4960000
0!
06
#4970000
1!
16
b11111001 3
1#
18
#4980000
0!
06
#4990000
1!
16
b1010001 H
0#
b11111010 3
b10000000 4
08
#5000000
0!
06
#5010000
1!
16
b11111011 3
#5020000
0!
06
#5030000
1!
16
b11111100 3
#5040000
0!
06
#5050000
1!
16
b11111101 3
#5060000
0!
06
#5070000
1!
16
b11111110 3
#5080000
0!
06
#5090000
1!
16
b11111111 3
#5100000
0!
06
#5110000
1!
16
b100000000 3
#5120000
0!
06
#5130000
1!
16
b100000001 3
1$
19
#5140000
0!
06
#5150000
1!
16
1D
0J
1E
0$
b100000010 3
1/
10
09
#5160000
0!
06
#5170000
1!
16
0D
b100000011 3
05
0/
#5180000
0!
06
#5190000
1!
16
b100000100 3
#5200000
0!
06
#5210000
1!
16
b100000101 3
#5220000
0!
06
#5230000
1!
16
b100000110 3
#5240000
0!
06
#5250000
b110011 &
0"
1!
1B
0?
1>
0;
07
16
b0 C
b0 H
b0 I
b100000111 3
b10100011 4
0.
0-
0)
0'
#5260000
0!
06
#5270000
1!
16
b100001000 3
#5280000
0!
06
#5290000
1!
16
b100001001 3
1#
18
#5300000
1"
0!
17
06
#5310000
1!
16
0#
b100001010 3
08
#5320000
0!
06
#5330000
1!
16
b100001011 3
#5340000
0!
06
#5350000
1%
1!
1:
16
1J
b110011 G
0E
b100001100 3
15
00
#5360000
0!
06
#5370000
0%
1!
0:
16
b100001101 3
#5380000
0!
06
#5390000
1!
16
b100001110 3
#5400000
0!
06
#5410000
1!
16
b100001111 3
#5420000
0!
06
#5430000
1!
16
b100010000 3
#5440000
0!
06
#5450000
1!
16
b100010001 3
1$
19
#5460000
0!
06
#5470000
1!
16
b1100110 G
b1 I
0$
b100010010 3
09
#5480000
0!
06
#5490000
1!
16
b100010011 3
#5500000
0!
06
#5510000
1!
16
b100010100 3
#5520000
0!
06
#5530000
1!
16
b100010101 3
#5540000
0!
06
#5550000
1!
16
b100010110 3
#5560000
0!
06
#5570000
1!
16
b100010111 3
#5580000
0!
06
#5590000
1!
16
b100011000 3
#5600000
0!
06
#5610000
1!
16
b100011001 3
1#
18
#5620000
0!
06
#5630000
1!
16
b1 H
0#
b100011010 3
b1000110 4
01
08
0F
#5640000
0!
06
#5650000
1!
16
b100011011 3
#5660000
0!
06
#5670000
1!
16
b100011100 3
#5680000
0!
06
#5690000
1!
16
b100011101 3
#5700000
0!
06
#5710000
1!
16
b100011110 3
#5720000
0!
06
#5730000
1!
16
b100011111 3
#5740000
0!
06
#5750000
1!
16
b100100000 3
#5760000
0!
06
#5770000
1!
16
b100100001 3
1$
19
#5780000
0!
06
#5790000
1!
16
b11001100 G
1E
b10 I
0$
b100100010 3
10
09
#5800000
0!
06
#5810000
1!
16
b100100011 3
#5820000
0!
06
#5830000
1!
16
b100100100 3
#5840000
0!
06
#5850000
1!
16
b100100101 3
#5860000
0!
06
#5870000
1!
16
b100100110 3
#5880000
0!
06
#5890000
1!
16
b100100111 3
#5900000
0!
06
#5910000
1!
16
b100101000 3
#5920000
0!
06
#5930000
1!
16
b100101001 3
1#
18
#5940000
0!
06
#5950000
1!
16
b10 H
0#
b100101010 3
b10001100 4
11
08
1F
#5960000
0!
06
#5970000
1!
16
b100101011 3
#5980000
0!
06
#5990000
1!
16
b100101100 3
#6000000
0!
06
#6010000
1!
16
b100101101 3
#6020000
0!
06
#6030000
1!
16
b100101110 3
#6040000
0!
06
#6050000
1!
16
b100101111 3
#6060000
0!
06
#6070000
1!
16
b100110000 3
#6080000
0!
06
#6090000
1!
16
b100110001 3
1$
19
#6100000
0!
06
#6110000
1!
16
b10011000 G
b11 I
0$
b100110010 3
09
#6120000
0!
06
#6130000
1!
16
b100110011 3
#6140000
0!
06
#6150000
1!
16
b100110100 3
#6160000
0!
06
#6170000
1!
16
b100110101 3
#6180000
0!
06
#6190000
1!
16
b100110110 3
#6200000
0!
06
#6210000
1!
16
b100110111 3
#6220000
0!
06
#6230000
1!
16
b100111000 3
#6240000
0!
06
#6250000
1!
16
b100111001 3
1#
18
#6260000
0!
06
#6270000
1!
16
b101 H
0#
b100111010 3
b11000 4
01
08
0F
#6280000
0!
06
#6290000
1!
16
b100111011 3
#6300000
0!
06
#6310000
1!
16
b100111100 3
#6320000
0!
06
#6330000
1!
16
b100111101 3
#6340000
0!
06
#6350000
1!
16
b100111110 3
#6360000
0!
06
#6370000
1!
16
b100111111 3
#6380000
0!
06
#6390000
1!
16
b101000000 3
#6400000
0!
06
#6410000
1!
16
b101000001 3
1$
19
#6420000
0!
06
#6430000
1!
16
b110000 G
0E
b100 I
0$
b101000010 3
00
09
#6440000
0!
06
#6450000
1!
16
b101000011 3
#6460000
0!
06
#6470000
1!
16
b101000100 3
#6480000
0!
06
#6490000
1!
16
b101000101 3
#6500000
0!
06
#6510000
1!
16
b101000110 3
#6520000
0!
06
#6530000
1!
16
b101000111 3
#6540000
0!
06
#6550000
1!
16
b101001000 3
#6560000
0!
06
#6570000
1!
16
b101001001 3
1#
18
#6580000
0!
06
#6590000
1!
16
b1010 H
0#
b101001010 3
b110000 4
08
#6600000
0!
06
#6610000
1!
16
b101001011 3
#6620000
0!
06
#6630000
1!
16
b101001100 3
#6640000
0!
06
#6650000
1!
16
b101001101 3
#6660000
0!
06
#6670000
1!
16
b101001110 3
#6680000
0!
06
#6690000
1!
16
b101001111 3
#6700000
0!
06
#6710000
1!
16
b101010000 3
#6720000
0!
06
#6730000
1!
16
b101010001 3
1$
19
#6740000
0!
06
#6750000
1!
16
b1100000 G
b101 I
0$
b101010010 3
09
#6760000
0!
06
#6770000
1!
16
b101010011 3
#6780000
0!
06
#6790000
1!
16
b101010100 3
#6800000
0!
06
#6810000
1!
16
b101010101 3
#6820000
0!
06
#6830000
1!
16
b101010110 3
#6840000
0!
06
#6850000
1!
16
b101010111 3
#6860000
0!
06
#6870000
1!
16
b101011000 3
#6880000
0!
06
#6890000
1!
16
b101011001 3
1#
18
#6900000
0!
06
#6910000
1!
16
b10100 H
0#
b101011010 3
b1100000 4
08
#6920000
0!
06
#6930000
1!
16
b101011011 3
#6940000
0!
06
#6950000
1!
16
b101011100 3
#6960000
0!
06
#6970000
1!
16
b101011101 3
#6980000
0!
06
#6990000
1!
16
b101011110 3
#7000000
0!
06
#7010000
1!
16
b101011111 3
#7020000
0!
06
#7030000
1!
16
b101100000 3
#7040000
0!
06
#7050000
1!
16
b101100001 3
1$
19
#7060000
0!
06
#7070000
1!
16
b11000000 G
1E
b110 I
0$
b101100010 3
10
09
#7080000
0!
06
#7090000
1!
16
b101100011 3
#7100000
0!
06
#7110000
1!
16
b101100100 3
#7120000
0!
06
#7130000
1!
16
b101100101 3
#7140000
0!
06
#7150000
1!
16
b101100110 3
#7160000
0!
06
#7170000
1!
16
b101100111 3
#7180000
0!
06
#7190000
1!
16
b101101000 3
#7200000
0!
06
#7210000
1!
16
b101101001 3
1#
18
#7220000
0!
06
#7230000
1!
16
b101000 H
0#
b101101010 3
b11000000 4
11
08
1F
#7240000
0!
06
#7250000
1!
16
b101101011 3
#7260000
0!
06
#7270000
1!
16
b101101100 3
#7280000
0!
06
#7290000
1!
16
b101101101 3
#7300000
0!
06
#7310000
1!
16
b101101110 3
#7320000
0!
06
#7330000
1!
16
b101101111 3
#7340000
0!
06
#7350000
1!
16
b101110000 3
#7360000
0!
06
#7370000
1!
16
b101110001 3
1$
19
#7380000
0!
06
#7390000
1!
16
b10000000 G
b111 I
0$
b101110010 3
09
#7400000
0!
06
#7410000
1!
16
b101110011 3
#7420000
0!
06
#7430000
1!
16
b101110100 3
#7440000
0!
06
#7450000
1!
16
b101110101 3
#7460000
0!
06
#7470000
1!
16
b101110110 3
#7480000
0!
06
#7490000
1!
16
b101110111 3
#7500000
0!
06
#7510000
1!
16
b101111000 3
#7520000
0!
06
#7530000
1!
16
b101111001 3
1#
18
#7540000
0!
06
#7550000
1!
16
b1010001 H
0#
b101111010 3
b10000000 4
08
#7560000
0!
06
#7570000
1!
16
b101111011 3
#7580000
0!
06
#7590000
1!
16
b101111100 3
#7600000
0!
06
#7610000
1!
16
b101111101 3
#7620000
0!
06
#7630000
1!
16
b101111110 3
#7640000
0!
06
#7650000
1!
16
b101111111 3
#7660000
0!
06
#7670000
1!
16
b110000000 3
#7680000
0!
06
#7690000
1!
16
b110000001 3
1$
19
#7700000
0!
06
#7710000
1!
16
b10100011 C
1D
0J
0$
b110000010 3
1.
1-
1)
1'
1/
09
#7720000
0!
06
#7730000
1!
16
0D
b110000011 3
05
0/
#7740000
0!
06
#7750000
1!
16
b110000100 3
#7760000
0!
06
#7770000
1!
16
b110000101 3
#7780000
0!
06
#7790000
1!
16
b110000110 3
#7800000
0!
06
#7810000
1!
16
b110000111 3
#7820000
0!
06
#7830000
1!
16
b110001000 3
#7840000
0!
06
#7850000
1!
16
b110001001 3
1#
18
#7860000
0!
06
#7870000
1!
16
0#
b110001010 3
08
#7880000
0!
06
#7890000
1!
16
b110001011 3
#7900000
0!
06
#7910000
1!
16
b110001100 3
#7920000
0!
06
#7930000
1!
16
b110001101 3
#7940000
0!
06
#7950000
1!
16
b110001110 3
#7960000
0!
06
#7970000
1!
16
b110001111 3
#7980000
0!
06
#7990000
1!
16
b110010000 3
#8000000
0!
06
#8010000
1!
16
b110010001 3
1$
19
#8020000
0!
06
#8030000
1!
16
0$
b110010010 3
09
#8040000
0!
06
#8050000
1!
16
b110010011 3
#8060000
0!
06
#8070000
1!
16
b110010100 3
#8080000
0!
06
#8090000
1!
16
b110010101 3
#8100000
0!
06
#8110000
1!
16
b110010110 3
#8120000
0!
06
#8130000
1!
16
b110010111 3
#8140000
0!
06
#8150000
1!
16
b110011000 3
#8160000
0!
06
#8170000
1!
16
b110011001 3
1#
18
#8180000
0!
06
#8190000
1!
16
0#
b110011010 3
08
